<?xml version='1.0' encoding='ASCII' standalone='yes'?>
<svg xmlns="http://www.w3.org/2000/svg" xmlns:xlink="http://www.w3.org/1999/xlink" version="1.1" width="800.0px" viewBox="0 0 800.0 663.0" height="663.0px">
  <g>
    <g><g transform="scale(7.526987434064006, -7.526987434064006)   translate(38.05193257245378,-56.08994656547287)" stroke-width="0.5" fill="none">
       <!-- hidden lines -->
       <g stroke="rgb(127,127,127)" fill="none" stroke-dasharray="0.5,0.5">

       </g>

       <!-- solid lines -->
       <g stroke="rgb(10,10,10)" fill="none">
			<path d="M-35.83337980315538,8.21119600641235 L-12.410134137791239,27.336196006412347 "/>
			<path d="M-12.035134137791236,27.030009788564453 L-11.866575484247546,27.167637352868656 "/>
			<path d="M-11.491575484247544,28.086196006412347 L-11.866575484247544,27.167637352868656 "/>
			<path d="M-11.491575484247548,28.086196006412347 L-8.276620196844625,30.711196006412347 "/>
			<path d="M-36.72337980315538,6.031150135335322 L-35.83337980315538,8.21119600641235 "/>
			<path d="M32.58986586220877,-9.406150135335322 L-12.410134137791232,27.336196006412344 "/>
			<path d="M9.166620196844624,-28.53115013533532 L32.58986586220877,-9.406150135335324 "/>
			<path d="M-9.583379803155381,-13.221839242940455 L9.166620196844619,-28.531150135335317 "/>
			<path d="M-6.521517624676404,-10.721839242940456 L-9.583379803155378,-13.221839242940456 "/>
			<path d="M-6.521517624676406,-10.721839242940455 L-14.021517624676406,-4.598114885982511 "/>
			<path d="M-17.083379803155378,-7.098114885982511 L-14.021517624676404,-4.598114885982511 "/>
			<path d="M-35.83337980315538,8.21119600641235 L-17.08337980315538,-7.098114885982509 "/>
			<path d="M32.58986586220877,-9.406150135335322 L32.21486586220877,-10.324708788879015 "/>
			<path d="M-8.472634137791237,24.12124071900943 L-8.304075484247544,24.25886828331363 "/>
			<path d="M-11.866575484247544,27.167637352868656 L-8.304075484247544,24.25886828331363 "/>
			<path d="M-11.491575484247544,28.086196006412347 L33.50842451575245,-8.65615013533532 "/>
			<path d="M33.50842451575246,-8.656150135335322 L33.13342451575246,-9.574708788879015 "/>
			<path d="M29.570924515752456,-6.665939719323983 L33.13342451575245,-9.574708788879011 "/>
			<path d="M29.69592451575246,-6.359753501476092 L29.57092451575246,-6.6659397193239895 "/>
			<path d="M-8.179075484247544,24.565054501161534 L29.695924515752456,-6.359753501476085 "/>
			<path d="M-8.179075484247544,24.56505450116153 L-8.304075484247544,24.25886828331363 "/>
			<path d="M-8.276620196844624,30.711196006412347 L36.723379803155375,-6.03115013533532 "/>
			<path d="M33.50842451575246,-8.656150135335324 L36.72337980315538,-6.031150135335324 "/>
			<path d="M35.83337980315538,-8.21119600641235 L36.72337980315538,-6.031150135335322 "/>
			<path d="M8.276620196844624,-30.711196006412347 L35.83337980315538,-8.21119600641235 "/>
			<path d="M-10.473379803155382,-15.401885114017484 L8.276620196844618,-30.711196006412344 "/>
			<path d="M-8.301517624676405,-12.175203156991808 L-14.911517624676407,-6.778160757059539 "/>
			<path d="M-17.973379803155378,-9.27816075705954 L-14.911517624676405,-6.77816075705954 "/>
			<path d="M-36.72337980315538,6.031150135335322 L-17.97337980315538,-9.278160757059538 "/>
			<path d="M-17.973379803155378,-9.27816075705954 L-17.083379803155378,-7.098114885982511 "/>
			<path d="M33.13342451575246,-9.574708788879015 L32.21486586220877,-10.324708788879015 "/>
			<path d="M8.276620196844624,-30.711196006412347 L9.166620196844624,-28.531150135335317 "/>
			<path d="M-9.583379803155378,-13.221839242940456 L-10.473379803155378,-15.401885114017485 "/>
			<path d="M-14.271517624676402,-5.210487321678306 L-14.021517624676402,-4.598114885982511 "/>
			<path d="M-7.021517624676404,-11.13008753340432 L-14.271517624676406,-5.210487321678306 "/>
			<path d="M-16.72100736745958,-7.210487321678306 L-14.271517624676404,-5.210487321678306 "/>
			<path d="M-16.72100736745958,-7.210487321678304 L-17.11100736745958,-8.165788321363744 "/>
			<path d="M-17.11100736745958,-8.165788321363745 L-14.661517624676405,-6.165788321363745 "/>
			<path d="M-14.911517624676403,-6.778160757059541 L-14.661517624676403,-6.165788321363745 "/>
			<path d="M-8.207634137791228,23.904869125063588 L-7.789075484247544,24.246620834599717 "/>
			<path d="M29.402365862208768,-6.803567283628192 L29.570924515752456,-6.665939719323989 "/>
			<path d="M-7.801517624676405,-11.766954866527945 L-14.661517624676407,-6.165788321363745 "/>
			<path d="M-1.4798855826698556,29.112279014336934 L-1.2148855826698557,29.761393796174477 "/>
			<path d="M-1.214885582669855,29.761393796174474 L29.403736202119877,54.761393796174474 "/>
			<path d="M-1.4798855826698556,29.112279014336934 L36.02011441733014,-1.506342770452786 "/>
			<path d="M36.02011441733015,-1.5063427704527896 L36.28511441733015,-0.8572279886152472 "/>
			<path d="M-1.214885582669855,29.761393796174474 L36.28511441733014,-0.8572279886152465 "/>
			<path d="M29.40373620211987,54.76139379617446 L66.90373620211987,24.14277201138474 "/>
			<path d="M36.28511441733015,-0.8572279886152501 L66.90373620211989,24.14277201138475 "/>
			<path d="M28.90905798601264,25.791273430785452 L28.04772986101264,26.49454489990484 "/>
			<path d="M33.61308296568365,29.632093743285452 L28.909057986012638,25.791273430785452 "/>
			<path d="M31.630742882758888,25.25066764322952 L33.61308296568365,29.63209374328546 "/>
			<path d="M32.52283272650889,24.522279335927294 L31.630742882758888,25.25066764322952 "/>
			<path d="M37.88896187193365,26.140853235871333 L32.52283272650889,24.522279335927276 "/>
			<path d="M33.18493689226265,22.300032923371347 L37.88896187193367,26.140853235871347 "/>
			<path d="M34.05065954851265,21.593173334511548 L33.18493689226265,22.30003292337134 "/>
			<path d="M39.407722320937374,25.967196772011548 L34.05065954851264,21.593173334511548 "/>
			<path d="M38.084968414687374,27.047220813873466 L39.407722320937374,25.967196772011548 "/>
			<path d="M32.75633328968585,25.4449081744486 L38.084968414687374,27.047220813873466 "/>
			<path d="M34.727546539687374,29.78854429554292 L32.75633328968585,25.4449081744486 "/>
			<path d="M33.404792633437374,30.868568337404838 L34.727546539687374,29.78854429554292 "/>
			<path d="M28.04772986101264,26.494544899904838 L33.404792633437374,30.868568337404838 "/>
			<path d="M66.63873620211987,23.49365722954721 L66.90373620211987,24.142772011384753 "/>
			<path d="M36.02011441733015,-1.5063427704527896 L66.63873620211987,23.49365722954721 "/>
			<path d="M33.61308296568365,29.632093743285452 L33.52474963235032,29.415722149339604 "/>
			<path d="M31.637725567977824,25.24496630462256 L33.52474963235033,29.415722149339608 "/>
			<path d="M37.88896187193365,26.140853235871333 L37.80062853860032,25.924481641925485 "/>
			<path d="M33.27327022559598,22.22790905872273 L37.80062853860033,25.924481641925496 "/>
			<path d="M38.084968414687374,27.047220813873466 L37.99663508135404,26.830849219927618 "/>
			<path d="M37.99663508135405,26.830849219927615 L39.23105565427071,25.822949042714317 "/>
			<path d="M32.75633328968585,25.4449081744486 L32.66799995635252,25.22853658050275 "/>
			<path d="M32.667999956352524,25.228536580502748 L37.99663508135405,26.830849219927615 "/>
			<path d="M33.404792633437374,30.868568337404838 L33.31645930010404,30.65219674345899 "/>
			<path d="M33.316459300104036,30.652196743458987 L34.6320192207504,29.578046566245682 "/>
			<path d="M28.13606319434598,26.42242103525622 L33.31645930010404,30.652196743458987 "/>
			<path d="M48.6611194991343,39.037806176547484 L53.435661890059954,39.70666545097052 "/>
			<path d="M53.43566189005995,39.706665450970526 L53.47278115233243,39.80769848608608 L53.50361178001154,39.91352053643408 L53.52807263992175,40.02385312312418 L53.54609936142289,40.138405897441615 L53.55764450580645,40.25687740492229 L53.562677691134205,40.37895587865342 L53.561185672190625,40.50432005971223 L53.55317237533867,40.6326400425836 L53.538658888187285,40.7635781433319 L53.51768340409773,40.89678978824226 L53.49030112167477,41.03192442059297 L53.45658409950733,41.168626423172476 L53.41662106654072,41.30653605411355 L53.37051718857961,41.445290393581736 L53.31839379153607,41.584524298826935 L53.26038804215107,41.72387136508469 L53.19665258702965,41.862964889798604 L53.12735515093954,42.001438837626424 L53.05267809543059,42.138928803690284 L52.97281793893618,42.275072972536236 L52.887984839619854,42.40951307027956 L52.798402042327886,42.54189530743011 L52.70430529110325,42.671871309916675 L52.60594220880697,42.799099035860216 L52.503571645479454,42.92324367568347 L52.39746299715666,43.04397853318818 L52.287895496933615,43.16098588528134 L52.17515748014101,43.273957818088036 L52.05954562556849,43.38259703725056 L51.94136417473159,43.48661765028149 L51.82092413123664,43.58574591891174 L51.69854244235083,43.67972097945403 L51.574541164931006,43.768295529285766 L51.44924661790621,43.851236477644946 L51.32298852354422,43.92832555902655 L51.19609913976199,43.99935990756497 L51.06891238576328,44.06415259089129 L50.94176296330451,44.122533102060146 L50.8149854759013,44.17434780825197 L50.68891354829346,44.21946035506958 L50.56387894848576,44.257752025365285 L50.44021071467481,44.28912205165426 L50.31823428935971,44.31348788129192 L50.198270662914936,44.3307853937176 L50.08063552887947,44.34096906919272 L49.96563845318482,44.344012108589546 L49.85358205950846,44.3399065039151 L49.74476123289623,44.32866305938488 L49.63946234374959,44.31031136299065 L49.537962494219826,44.28489970863743 L49.44052878899235,44.25249496905434 L49.3934173034736,44.23369612786446 L49.34741763238011,44.213182419813805 L49.302560043611884,44.19096734297418 L49.25887405357586,44.167065514922385 L49.21638840776406,44.14149266312176 L49.17513106183894,44.11426561457351 L49.13512916323855,44.08540228474451 L49.09640903331342,44.05492166577882 L49.058996150007026,44.02284381400088 L49.02291513109128,43.98918983671833 L48.98818971796795,43.953981878333416 L48.95484276004676,43.91724310577185 L48.92289619971041,43.87899769323897 L48.892371057876474,43.839270806313024 L48.86328742016552,43.798088585386154 L48.83566442368478,43.75547812846395 L48.78487208535486,43.66608557912154 L48.74012770684398,43.571328401676595 L48.7015490364365,43.4714559569527 L48.669237596880194,43.366731066993964 L48.64327841822131,43.257429323428525 "/>
			<path d="M52.19210745440682,38.91101916191473 L52.299604596528084,38.91429131278338 L52.40417106862181,38.92409988249125 L52.50555496089779,38.94042124133481 L52.60351203067934,38.963216069731004 L52.697806290805346,38.99242945294165 L52.78821057814395,39.027991013367796 L52.87450710084849,39.06981508009555 L52.95648796303707,39.11780089528481 L53.03395566563201,39.17183285690373 L53.106723582152384,39.23178079722411 L53.17461640831358,39.29750029640692 L53.237470584350675,39.36883303042228 L53.295134689048204,39.445607152465925 L53.34746980452719,39.527637706953236 L53.394349850910416,39.61472707509343 L53.43566189005994,39.70666545097052 "/>
			<path d="M55.08246055907782,43.3620599682411 L55.05431961722466,43.30302913141827 L55.0202980996733,43.249330086631296 L54.98061601424963,43.20131009087945 L54.95873106410646,43.17952826884439 L54.93552997411992,43.15927967630899 "/>
			<path d="M53.35439114403573,45.09577134941269 L53.38127431486958,45.11615525106267 L53.409639779672446,45.13462024961646 L53.43943248185829,45.151130505020376 L53.470594594612635,45.16565397132335 L53.503065633132785,45.17816245887725 L53.53678257202719,45.1886316890522 L53.57167996764597,45.19704134136074 L53.60769008510527,45.20337509289933 L53.64474302975877,45.207620650030655 L53.6827668828613,45.209769772245245 L53.721687841161106,45.209818288156065 L53.76143036014998,45.20776610359507 L53.84307007875357,45.19737963566291 L53.92705250445723,45.17869096871197 L54.01272592335211,45.1518451290866 L54.0994254992151,45.11705044379012 L54.18647843271933,45.07457692384176 L54.27320918243939,45.0247541689581 L54.35894470713545,44.96796880981884 L54.443019688635786,44.90466150776547 L54.52478169478722,44.8353235352152 L54.60359624240857,44.760492963326904 L54.67885172095782,44.680750486502994 L54.749964138704826,44.59671491612974 L54.81638165457868,44.50903837852514 L54.877588860521996,44.41840125435881 L54.93311078112057,44.325506898814695 L54.98251655947074,44.23107618346864 L55.02542280068174,44.13584190223674 L55.06149654706702,44.040543084804774 L55.09045786193665,43.94591926166732 L55.11208200194033,43.85270472528059 L55.1262011611033,43.76162283186299 L55.13270577302128,43.673380388062306 L55.131545361109154,43.58866216604956 L55.128091260515944,43.54783129256755 L55.12272893030548,43.50812558960306 L55.11546877861301,43.46962212483209 L55.10632489719305,43.43239563241943 L55.0953150340676,43.39651836796166 L55.08246055907782,43.362059968241105 "/>
			<path d="M47.907546885730625,39.65309563887235 L48.64327841822131,43.25742932342851 "/>
			<path d="M48.81640124506481,38.91101916191473 L52.19210745440684,38.91101916191473 "/>
			<path d="M53.35439114403573,45.09577134941269 L51.65717526640513,43.710000388231066 "/>
			<path d="M54.935529974119916,43.15927967630899 L53.23831409648932,41.77350871512736 "/>

       </g>
    </g>
    
</g>
    <text x="45" y="35" font-size="20" font-family="Verdana" font-weight="bold" letter-spacing="0" text-anchor="start" fill="black">Safety precautitons are required when working with glass</text>
    <g transform="translate(5, 5) scale(0.4 0.4) "><sodipodi:namedview xmlns:sodipodi="http://sodipodi.sourceforge.net/DTD/sodipodi-0.dtd" xmlns:inkscape="http://www.inkscape.org/namespaces/inkscape" id="namedview7" pagecolor="#505050" bordercolor="#eeeeee" borderopacity="1" inkscape:showpageshadow="0" inkscape:pageopacity="0" inkscape:pagecheckerboard="0" inkscape:deskcolor="#505050" inkscape:document-units="mm" showgrid="false" inkscape:zoom="1.5715448" inkscape:cx="52.814275" inkscape:cy="192.1676" inkscape:window-width="1920" inkscape:window-height="1043" inkscape:window-x="1920" inkscape:window-y="0" inkscape:window-maximized="1" inkscape:current-layer="layer1"/>
  <defs id="defs2"/>
  <g xmlns:inkscape="http://www.inkscape.org/namespaces/inkscape" xmlns:sodipodi="http://sodipodi.sourceforge.net/DTD/sodipodi-0.dtd" inkscape:label="Layer 1" inkscape:groupmode="layer" id="layer1">
    <g id="g1012" transform="matrix(1.1385554,0,0,1.2846572,-9.7264505,-11.65353)">
      <path style="fill:#1e1e1e;stroke:#e60000;stroke-width:6;stroke-linecap:round;stroke-dasharray:none" d="m 52.484305,12.111842 -40.321452,71.444" id="path245" sodipodi:nodetypes="cc"/>
      <path style="fill:#1e1e1e;stroke:#e60000;stroke-width:6;stroke-linecap:round;stroke-dasharray:none" d="m 52.736689,12.111842 40.321452,71.444" id="path1005" sodipodi:nodetypes="cc"/>
      <path style="fill:#1e1e1e;stroke:#e60000;stroke-width:6;stroke-linecap:round;stroke-dasharray:none" d="M 12.09865,83.609676 92.909311,83.448559" id="path1007" sodipodi:nodetypes="cc"/>
    </g>
    <text xml:space="preserve" style="font-weight:bold;font-size:4.23333px;font-family:sans-serif;-inkscape-font-specification:'sans-serif Bold';fill:#1e1e1e;stroke:#e60000;stroke-width:6.00001;stroke-linecap:round;stroke-dasharray:none" x="45.631306" y="51.027767" id="text1128"><tspan sodipodi:role="line" id="tspan1126" style="stroke-width:6"/></text>
    <text xml:space="preserve" style="font-weight:bold;font-size:50.8px;font-family:sans-serif;-inkscape-font-specification:'sans-serif Bold';fill:#e60000;fill-opacity:1;stroke:#e60000;stroke-width:0.1;stroke-linecap:round;stroke-dasharray:none" x="38.553177" y="80.518684" id="text1182"><tspan sodipodi:role="line" id="tspan1180" style="font-size:50.8px;fill:#e60000;fill-opacity:1;stroke:none;stroke-width:0.1;stroke-dasharray:none" x="38.553177" y="80.518684">!</tspan></text>
  </g>
</g>
  </g>
</svg>
